[gd_scene load_steps=4 format=3 uid="uid://x8mptsvabsm8"]

[ext_resource type="PackedScene" uid="uid://cyin8mhygatwm" path="res://scenes/lv_01_tutorial.tscn" id="1_tmb61"]
[ext_resource type="Script" path="res://scenes/global_scene.gd" id="1_y5dnq"]
[ext_resource type="PackedScene" uid="uid://b2rmnewcxprjb" path="res://entities/player/player.tscn" id="2_k4rbp"]

[node name="GlobalScene" type="Node"]
script = ExtResource("1_y5dnq")

[node name="Levels" type="Node2D" parent="."]

[node name="lv_01_tutorial" parent="Levels" instance=ExtResource("1_tmb61")]
colors = [Color(0.870588, 0.254902, 0.254902, 1), Color(0.709804, 0.333333, 0.72549, 1)]

[node name="player" parent="." instance=ExtResource("2_k4rbp")]
z_index = 2
position = Vector2(-103, 308)
safe_margin = 0.2
